            $.
           .$$,
           ;$$$,
           i$`$$,
           2$ ?$$L
           S$  ?$$L
          .$S   ?$$L
          ;$2    ?$$L
          i$i    :$$$;
          2$;    :$$$i
          S$.    i$$$'
          $$.   ,$$?
          $$   ,$?`
          $$.  ?'
          $$
          $$.
 ,gS$$$Sg▬$$
i$$$$$$$$$$?
 "╛$╡╡╡$?╛`